\relax 
\providecommand\hyper@newdestlabel[2]{}
\providecommand\HyperFirstAtBeginDocument{\AtBeginDocument}
\HyperFirstAtBeginDocument{\ifx\hyper@anchor\@undefined
\global\let\oldcontentsline\contentsline
\gdef\contentsline#1#2#3#4{\oldcontentsline{#1}{#2}{#3}}
\global\let\oldnewlabel\newlabel
\gdef\newlabel#1#2{\newlabelxx{#1}#2}
\gdef\newlabelxx#1#2#3#4#5#6{\oldnewlabel{#1}{{#2}{#3}}}
\AtEndDocument{\ifx\hyper@anchor\@undefined
\let\contentsline\oldcontentsline
\let\newlabel\oldnewlabel
\fi}
\fi}
\global\let\hyper@last\relax 
\gdef\HyperFirstAtBeginDocument#1{#1}
\providecommand\HyField@AuxAddToFields[1]{}
\providecommand\HyField@AuxAddToCoFields[2]{}
\bibstyle{IEEEtran}
\@writefile{lof}{\contentsline {figure}{\numberline {1}{\ignorespaces  Simple graph }}{1}{figure.1}}
\newlabel{fig::Figure1}{{1}{1}{Simple graph}{figure.1}{}}
\@writefile{toc}{\contentsline {paragraph}{}{1}{section*.4}}
\@writefile{lof}{\contentsline {figure}{\numberline {2}{\ignorespaces  Different representations of a graph }}{2}{figure.2}}
\newlabel{fig::Figure2}{{2}{2}{Different representations of a graph}{figure.2}{}}
\@writefile{lof}{\contentsline {figure}{\numberline {3}{\ignorespaces  https://miro.medium.com/max/8018/1*pCeWhIrEFXoEgsB5eEB6sw.png }}{2}{figure.3}}
\newlabel{fig::Figure3}{{3}{2}{https://miro.medium.com/max/8018/1*pCeWhIrEFXoEgsB5eEB6sw.png}{figure.3}{}}
